Part 5/Verilog_Asgn_7_Part_5_Grp_28/GCD.vcd
$date
	Mon Nov 13 23:43:19 2023
$end
$version
	Icarus Verilog
$end
$timescale
	1ps
$end
$scope module processor_tb $end
$var wire 32 ! GCD [31:0] $end
$var reg 1 " clk $end
$var reg 1 # clk2 $end
$var reg 1 $ rst $end
$scope module uut $end
$var wire 32 % Pdata [31:0] $end
$var wire 1 " clk $end
$var wire 1 # clk2 $end
$var wire 32 & dataSPin [31:0] $end
$var wire 1 ' en $end
$var wire 1 ( pop $end
$var wire 1 ) push $end
$var wire 1 $ rst $end
$var wire 32 * stack_pointer [31:0] $end
$var wire 1 + zflag $end
$var wire 1 , writeRegw $end
$var wire 1 - writeDmw $end
$var wire 32 . writeBack [31:0] $end
$var wire 1 / signflag $end
$var wire 1 0 rstw $end
$var wire 32 1 return_Reg [31:0] $end
$var wire 32 2 reg2_dataw [31:0] $end
$var wire 32 3 reg1_dataw [31:0] $end
$var wire 32 4 readM_data [31:0] $end
$var wire 1 5 readInw $end
$var wire 1 6 readDmw $end
$var wire 32 7 pc_out [31:0] $end
$var wire 32 8 pc_branch_targetw [31:0] $end
$var wire 1 9 overflowflag $end
$var wire 1 : muxWBw $end
$var wire 32 ; imm32w [31:0] $end
$var wire 1 < empty $end
$var wire 32 = douta [31:0] $end
$var wire 32 > dataSPout [31:0] $end
$var wire 1 ? carryflag $end
$var wire 3 @ branchw [2:0] $end
$var wire 32 A aluOutw [31:0] $end
$var wire 4 B aluFuncw [3:0] $end
$var wire 1 C MuxAlu2w $end
$var wire 1 D MuxAlu1w $end
$var reg 1 E MuxAlu1 $end
$var reg 1 F MuxAlu2 $end
$var reg 32 G addr [31:0] $end
$var reg 4 H aluFunc [3:0] $end
$var reg 32 I aluOut [31:0] $end
$var reg 3 J branch [2:0] $end
$var reg 32 K imm32 [31:0] $end
$var reg 32 L instruction [31:0] $end
$var reg 32 M ldValue [31:0] $end
$var reg 1 N muxWB $end
$var reg 32 O opA [31:0] $end
$var reg 32 P opB [31:0] $end
$var reg 32 Q pc [31:0] $end
$var reg 32 R pc_4 [31:0] $end
$var reg 32 S pc_branch_target [31:0] $end
$var reg 1 T readDm $end
$var reg 1 U readIn $end
$var reg 32 V reg1_data [31:0] $end
$var reg 32 W reg2_data [31:0] $end
$var reg 1 X writeDm $end
$var reg 32 Y writeM_data [31:0] $end
$var reg 1 Z writeReg $end
$var reg 5 [ writeRegister [4:0] $end
$var reg 32 \ write_data [31:0] $end
$scope module Br $end
$var wire 3 ] branch [2:0] $end
$var wire 1 " clk $end
$var wire 32 ^ offset [31:0] $end
$var wire 32 _ pc_in [31:0] $end
$var wire 32 ` regData [31:0] $end
$var wire 1 $ rst $end
$var reg 32 a pc_out [31:0] $end
$upscope $end
$scope module CU $end
$var wire 1 " clk $end
$var wire 32 b instruction [31:0] $end
$var reg 1 D MuxAlu1 $end
$var reg 1 C MuxAlu2 $end
$var reg 4 c aluFunc [3:0] $end
$var reg 3 d branch [2:0] $end
$var reg 1 : muxWB $end
$var reg 1 6 readDm $end
$var reg 1 5 readIn $end
$var reg 1 0 rst $end
$var reg 1 - writeDm $end
$var reg 1 , writeReg $end
$upscope $end
$scope module DMem $end
$var wire 32 e address [31:0] $end
$var wire 1 " clk $end
$var wire 1 T mem_read $end
$var wire 1 X mem_write $end
$var wire 32 f read_data [31:0] $end
$var wire 1 $ rst $end
$var wire 32 g write_data [31:0] $end
$upscope $end
$scope module IMem $end
$var wire 1 " clk $end
$var wire 32 h douta [31:0] $end
$var wire 1 $ rsta $end
$var wire 32 i addra [31:0] $end
$var integer 32 j i [31:0] $end
$upscope $end
$scope module PC $end
$var wire 3 k branch [2:0] $end
$var wire 1 " clk $end
$var wire 32 l pc_4 [31:0] $end
$var wire 32 m pc_branch_target [31:0] $end
$var wire 1 U readIn $end
$var wire 1 $ rst $end
$var reg 32 n pc [31:0] $end
$upscope $end
$scope module RB $end
$var wire 1 " clk $end
$var wire 1 Z regWrite $end
$var wire 32 o retReg [31:0] $end
$var wire 5 p rs [4:0] $end
$var wire 32 q rs_out [31:0] $end
$var wire 1 $ rst $end
$var wire 5 r rt [4:0] $end
$var wire 32 s rt_out [31:0] $end
$var wire 32 t sp [31:0] $end
$var wire 32 u writeData [31:0] $end
$var wire 5 v writeReg [4:0] $end
$var integer 32 w i [31:0] $end
$upscope $end
$scope module SE $end
$var wire 16 x imm16 [15:0] $end
$var wire 32 y imm32 [31:0] $end
$upscope $end
$scope module WB $end
$var wire 32 z aluOut [31:0] $end
$var wire 1 " clk $end
$var wire 32 { ldValue [31:0] $end
$var wire 1 N select $end
$var wire 32 | writeBack [31:0] $end
$upscope $end
$scope module arithematic $end
$var wire 1 " clk $end
$var wire 4 } opCode [3:0] $end
$var wire 32 ~ operandA [31:0] $end
$var wire 32 !" operandB [31:0] $end
$var reg 1 ? carryflag $end
$var reg 1 9 overflowflag $end
$var reg 32 "" result [31:0] $end
$var reg 1 / signflag $end
$var reg 1 + zflag $end
$upscope $end
$scope module stkPtr $end
$var wire 1 " clk $end
$var wire 32 #" data_in [31:0] $end
$var wire 1 ' enable $end
$var wire 1 ( pop $end
$var wire 1 ) push $end
$var wire 1 $ rst $end
$var wire 32 $" stackPointer [31:0] $end
$var wire 1 < empty $end
$var wire 32 %" data_out [31:0] $end
$var reg 8 &" sp [7:0] $end
$upscope $end
$upscope $end
$upscope $end
$enddefinitions $end
#0
$dumpvars
b0 &"
b0 %"
bx $"
bz #"
bx ""
bx !"
bx ~
bx }
bx |
bx {
bx z
bx y
bx x
bx w
bx v
bx u
bx t
bx s
bx r
bx q
bx p
bx o
bx n
b10 m
b0 l
b0 k
bx j
bx i
bx h
bx g
bx f
bx e
bx d
bx c
bx b
bx a
bx `
b0 _
bx ^
b0 ]
bx \
bx [
xZ
bx Y
xX
bx W
bx V
1U
xT
b10 S
b0 R
b0 Q
bx P
bx O
xN
bx M
bx L
bx K
b0 J
bx I
bx H
bx G
xF
xE
xD
xC
bx B
bx A
bx @
x?
b0 >
bx =
1<
bx ;
x:
x9
bx 8
bx 7
x6
x5
bx 4
bx 3
bx 2
bx 1
x0
x/
bx .
x-
x,
x+
bx *
z)
z(
z'
bz &
bx %
1$
0#
0"
bx !
$end
#5000
b0 *
b0 t
b0 $"
b0 1
b0 o
0/
0+
0?
09
b0 8
b0 a
b100000000000010000000000010010 =
b100000000000010000000000010010 b
b100000000000010000000000010010 h
b0 7
b0 i
b0 n
b10000000 j
b100000 w
bx J
bx ]
bx k
xU
bx Q
bx _
1"
#10000
0"
0$
#15000
b0 B
b0 c
b0 @
b0 d
00
1,
1:
06
0-
0C
1D
15
b10010 ;
b10010 y
b10010 x
b0 3
b0 q
b0 p
b0 2
b0 s
b1 r
b1 [
b1 v
b100000000000010000000000010010 L
b0 Q
b0 _
1"
#20000
0"
#25000
bx 2
bx s
bx 1
bx o
x+
b10010 A
b10010 ""
b1 8
b1 a
b0 Y
b0 g
b0 W
b0 V
b0 `
b10010 P
b10010 !"
b0 O
b0 ~
b0 J
b0 ]
b0 k
1Z
1N
0T
0X
0F
1E
1U
b0 H
b0 }
b10010 K
b10010 ^
1"
#30000
0"
#35000
0+
b10010 !
b10010 %
b10010 .
b10010 |
bx Y
bx g
b10010 G
b10010 e
b10010 I
b10010 z
bx W
1"
#40000
0"
#45000
b10010 2
b10010 s
b10010 1
b10010 o
b10010 \
b10010 u
1"
#50000
0"
#55000
b10010 Y
b10010 g
b10010 W
1"
#60000
0"
#65000
1"
#70000
0"
#75000
1"
#80000
0"
#85000
1"
#90000
0"
#95000
1"
#100000
0"
#105000
1"
#110000
0"
#115000
1"
#120000
0"
#125000
1"
#130000
0"
#135000
1"
#140000
0"
#145000
1"
#150000
0"
#155000
1"
#160000
0"
#165000
1"
#170000
0"
#175000
1"
#180000
0"
#185000
1"
#190000
0"
#195000
1"
#200000
b1 S
b1 m
b1 R
b1 l
0"
1#
#205000
b100000000000100000000000001100 =
b100000000000100000000000001100 b
b100000000000100000000000001100 h
b1 7
b1 i
b1 n
1"
#210000
0"
#215000
b1100 ;
b1100 y
b1100 x
b0 2
b0 s
b10 r
b10 [
b10 v
b100000000000100000000000001100 L
b1 Q
b1 _
1"
#220000
0"
#225000
b10010 2
b10010 s
b1100 A
b1100 ""
b10 8
b10 a
b0 Y
b0 g
b0 W
b1100 P
b1100 !"
b1100 K
b1100 ^
1"
#230000
0"
#235000
b1100 !
b1100 %
b1100 .
b1100 |
b10010 Y
b10010 g
b1100 G
b1100 e
b1100 I
b1100 z
b10010 W
1"
#240000
0"
#245000
b1100 2
b1100 s
b1100 \
b1100 u
1"
#250000
0"
#255000
b1100 Y
b1100 g
b1100 W
1"
